{
    "$schema": "../valueSets.jsonschema",
    "valueSets": [
        {
            "valueSet": [
                {
                    "id": "2.16.840.1.113883.1.11.19316",
                    "name": "RoleClassMutualRelationship",
                    "displayName": "RoleClassMutualRelationship",
                    "effectiveDate": "2014-03-26T00:00:00",
                    "statusCode": "final",
                    "versionLabel": "DEFN=UV=VO=1360-20160323",
                    "desc": [
                        {
                            "language": "en-US",
                            "content": "&lt;p&gt;\n    &lt;b&gt;History description 2014-03-26: &lt;/b&gt;Lock all vaue sets untouched since 2014-03-26 to trackingId 2014T1_2014_03_26&lt;/p&gt;\n&lt;b&gt;description: &lt;/b&gt;\n&lt;p&gt;A relationship that is based on mutual behavior of the two Entities as being related. The basis of such relationship may be agreements (e.g., spouses, contract parties) or they may be &lt;i&gt;de facto&lt;/i&gt; behavior (e.g. friends) or may be an incidental involvement with each other (e.g. parties over a dispute, siblings, children).&lt;/p&gt;"
                        }
                    ],
                    "sourceCodeSystem": [
                        {
                            "id": "2.16.840.1.113883.5.110",
                            "identifierName": "Role&#160;Class",
                            "canonicalUri": "http://hl7.org/fhir/v3/RoleClass"
                        }
                    ],
                    "publishingAuthority": [
                        {
                            "name": "Nictiz",
                            "addrLine": [
                                {
                                    "type": "uri",
                                    "content": "http://www.nictiz.nl"
                                }
                            ]
                        }
                    ],
                    "conceptList": [
                        {
                            "concept": [
                                {
                                    "code": "_RoleClassRelationshipFormal",
                                    "codeSystem": "2.16.840.1.113883.5.110",
                                    "displayName": "RoleClassRelationshipFormal",
                                    "level": "1",
                                    "type": "A"
                                },
                                {
                                    "code": "AFFL",
                                    "codeSystem": "2.16.840.1.113883.5.110",
                                    "displayName": "affiliate",
                                    "level": "2",
                                    "type": "L"
                                },
                                {
                                    "code": "AGNT",
                                    "codeSystem": "2.16.840.1.113883.5.110",
                                    "displayName": "agent",
                                    "level": "2",
                                    "type": "S"
                                },
                                {
                                    "code": "ASSIGNED",
                                    "codeSystem": "2.16.840.1.113883.5.110",
                                    "displayName": "assigned entity",
                                    "level": "3",
                                    "type": "S"
                                },
                                {
                                    "code": "COMPAR",
                                    "codeSystem": "2.16.840.1.113883.5.110",
                                    "displayName": "commissioning party",
                                    "level": "4",
                                    "type": "L"
                                },
                                {
                                    "code": "SGNOFF",
                                    "codeSystem": "2.16.840.1.113883.5.110",
                                    "displayName": "signing authority or officer",
                                    "level": "4",
                                    "type": "L"
                                },
                                {
                                    "code": "CON",
                                    "codeSystem": "2.16.840.1.113883.5.110",
                                    "displayName": "contact",
                                    "level": "3",
                                    "type": "S"
                                },
                                {
                                    "code": "ECON",
                                    "codeSystem": "2.16.840.1.113883.5.110",
                                    "displayName": "emergency contact",
                                    "level": "4",
                                    "type": "L"
                                },
                                {
                                    "code": "NOK",
                                    "codeSystem": "2.16.840.1.113883.5.110",
                                    "displayName": "next of kin",
                                    "level": "4",
                                    "type": "L"
                                },
                                {
                                    "code": "GUARD",
                                    "codeSystem": "2.16.840.1.113883.5.110",
                                    "displayName": "guardian",
                                    "level": "3",
                                    "type": "L"
                                },
                                {
                                    "code": "CIT",
                                    "codeSystem": "2.16.840.1.113883.5.110",
                                    "displayName": "citizen",
                                    "level": "2",
                                    "type": "L"
                                },
                                {
                                    "code": "COVPTY",
                                    "codeSystem": "2.16.840.1.113883.5.110",
                                    "displayName": "covered party",
                                    "level": "2",
                                    "type": "S"
                                },
                                {
                                    "code": "CLAIM",
                                    "codeSystem": "2.16.840.1.113883.5.110",
                                    "displayName": "claimant",
                                    "level": "3",
                                    "type": "L"
                                },
                                {
                                    "code": "NAMED",
                                    "codeSystem": "2.16.840.1.113883.5.110",
                                    "displayName": "named insured",
                                    "level": "3",
                                    "type": "S"
                                },
                                {
                                    "code": "DEPEN",
                                    "codeSystem": "2.16.840.1.113883.5.110",
                                    "displayName": "dependent",
                                    "level": "4",
                                    "type": "L"
                                },
                                {
                                    "code": "INDIV",
                                    "codeSystem": "2.16.840.1.113883.5.110",
                                    "displayName": "individual",
                                    "level": "4",
                                    "type": "L"
                                },
                                {
                                    "code": "SUBSCR",
                                    "codeSystem": "2.16.840.1.113883.5.110",
                                    "displayName": "subscriber",
                                    "level": "4",
                                    "type": "L"
                                },
                                {
                                    "code": "PROG",
                                    "codeSystem": "2.16.840.1.113883.5.110",
                                    "displayName": "program eligible",
                                    "level": "3",
                                    "type": "L"
                                },
                                {
                                    "code": "CRINV",
                                    "codeSystem": "2.16.840.1.113883.5.110",
                                    "displayName": "clinical research investigator",
                                    "level": "2",
                                    "type": "L"
                                },
                                {
                                    "code": "CRSPNSR",
                                    "codeSystem": "2.16.840.1.113883.5.110",
                                    "displayName": "clinical research sponsor",
                                    "level": "2",
                                    "type": "L"
                                },
                                {
                                    "code": "EMP",
                                    "codeSystem": "2.16.840.1.113883.5.110",
                                    "displayName": "employee",
                                    "level": "2",
                                    "type": "S"
                                },
                                {
                                    "code": "MIL",
                                    "codeSystem": "2.16.840.1.113883.5.110",
                                    "displayName": "military person",
                                    "level": "3",
                                    "type": "L"
                                },
                                {
                                    "code": "GUAR",
                                    "codeSystem": "2.16.840.1.113883.5.110",
                                    "displayName": "guarantor GuarantorRole",
                                    "level": "2",
                                    "type": "L"
                                },
                                {
                                    "code": "INVSBJ",
                                    "codeSystem": "2.16.840.1.113883.5.110",
                                    "displayName": "Investigation Subject",
                                    "level": "2",
                                    "type": "S"
                                },
                                {
                                    "code": "CASEBJ",
                                    "codeSystem": "2.16.840.1.113883.5.110",
                                    "displayName": "Case Subject",
                                    "level": "3",
                                    "type": "L"
                                },
                                {
                                    "code": "RESBJ",
                                    "codeSystem": "2.16.840.1.113883.5.110",
                                    "displayName": "research subject",
                                    "level": "3",
                                    "type": "L"
                                },
                                {
                                    "code": "LIC",
                                    "codeSystem": "2.16.840.1.113883.5.110",
                                    "displayName": "licensed entity",
                                    "level": "2",
                                    "type": "S"
                                },
                                {
                                    "code": "NOT",
                                    "codeSystem": "2.16.840.1.113883.5.110",
                                    "displayName": "notary public",
                                    "level": "3",
                                    "type": "L"
                                },
                                {
                                    "code": "PROV",
                                    "codeSystem": "2.16.840.1.113883.5.110",
                                    "displayName": "healthcare provider",
                                    "level": "3",
                                    "type": "L"
                                },
                                {
                                    "code": "PAT",
                                    "codeSystem": "2.16.840.1.113883.5.110",
                                    "displayName": "patient",
                                    "level": "2",
                                    "type": "L"
                                },
                                {
                                    "code": "PAYEE",
                                    "codeSystem": "2.16.840.1.113883.5.110",
                                    "displayName": "payee",
                                    "level": "2",
                                    "type": "L"
                                },
                                {
                                    "code": "PAYOR",
                                    "codeSystem": "2.16.840.1.113883.5.110",
                                    "displayName": "invoice payor",
                                    "level": "2",
                                    "type": "L"
                                },
                                {
                                    "code": "POLHOLD",
                                    "codeSystem": "2.16.840.1.113883.5.110",
                                    "displayName": "policy holder",
                                    "level": "2",
                                    "type": "L"
                                },
                                {
                                    "code": "QUAL",
                                    "codeSystem": "2.16.840.1.113883.5.110",
                                    "displayName": "qualified entity",
                                    "level": "2",
                                    "type": "L"
                                },
                                {
                                    "code": "SPNSR",
                                    "codeSystem": "2.16.840.1.113883.5.110",
                                    "displayName": "coverage sponsor",
                                    "level": "2",
                                    "type": "L"
                                },
                                {
                                    "code": "STD",
                                    "codeSystem": "2.16.840.1.113883.5.110",
                                    "displayName": "student",
                                    "level": "2",
                                    "type": "L"
                                },
                                {
                                    "code": "UNDWRT",
                                    "codeSystem": "2.16.840.1.113883.5.110",
                                    "displayName": "underwriter",
                                    "level": "2",
                                    "type": "L"
                                },
                                {
                                    "code": "CAREGIVER",
                                    "codeSystem": "2.16.840.1.113883.5.110",
                                    "displayName": "caregiver",
                                    "level": "1",
                                    "type": "L"
                                },
                                {
                                    "code": "PRS",
                                    "codeSystem": "2.16.840.1.113883.5.110",
                                    "displayName": "personal relationship",
                                    "level": "1",
                                    "type": "L"
                                }
                            ]
                        }
                    ]
                }
            ]
        }
    ]
}