id	effectiveTime	active	moduleId	conceptId	languageCode	typeId	term	caseSignificanceId
11000147113	20161001	1	11000146104	31000147101	en	900000000000003001	DHD Diagnosis thesaurus reference set (foundation metadata concept)	900000000000020002
21000147115	20161001	1	11000146104	31000147101	en	900000000000013009	DHD Diagnosis thesaurus reference set	900000000000020002
31000147117	20161001	1	11000146104	31000147101	nl	900000000000013009	DHD Diagnosethesaurus-referentieset	900000000000020002
41000147112	20161001	1	11000146104	41000147108	en	900000000000003001	DHD Procedure thesaurus reference set (foundation metadata concept)	900000000000020002
51000147114	20161001	1	11000146104	41000147108	en	900000000000013009	DHD Procedure thesaurus reference set	900000000000020002
61000147111	20161001	1	11000146104	41000147108	nl	900000000000013009	DHD Verrichtingenthesaurus-referentieset	900000000000020002
