{
  "description" : "Patches for a codeSystem. Includes versionLabel, name, displayName, experimental, caseSensitive, desc, copyright, publishingAuthority, and property",
  "value" : {
    "parameter": [
      {
        "op": "replace",
        "path": "/versionLabel",
        "value": "4.0.0"
      },
      {
        "op": "add",
        "path": "/name",
        "value": "yadadadad"
      },
      {
        "op": "add",
        "path": "/displayName",
        "value": "yadadadad"
      },
      {
        "op": "add",
        "path": "/experimental",
        "value": "false"
      },
      {
        "op": "add",
        "path": "/caseSensitive",
        "value": "false"
      },
      {
        "op": "add",
        "path": "/desc",
        "value": {
          "desc": {
            "language": "de-DE",
            "#text": "`sd,,mnfbadfg"
          }
        }
      },
      {
        "op": "add",
        "path": "/copyright",
        "value": {
          "copyright": {
            "language": "de-DE",
            "#text": "skldjfhsakdjl"
          }
        }
      },
      {
        "op": "add",
        "path": "/publishingAuthority",
        "value": {
          "publishingAuthority": {
            "name": "ART-DECOR",
            "addrLine": [
              {
                "type": "uri",
                "#text": "https://art-decor.org"
              }
            ]
          }
        }
      },
      {
        "op": "add",
        "path": "/property",
        "value": {
          "property": {
            "name": "prop1",
            "#text": "skldjfhsakdjl"
          }
        }
      },
      {
        "op": "add",
        "path": "/conceptList/codedConcept/A00-A09/before/A",
        "value": {
          "codedConcept": [
            {
              "code": "A00-A09",
              "level": "0",
              "type": "L",
              "statusCode": "draft",
              "designation": [
                {
                  "displayName": "Code NEW, but without property",
                  "language": "en-US",
                  "type": "preferred"
                }
              ]
            }
          ]
        }
      },
      {
        "op": "replace",
        "path": "/conceptList/codedConcept",
        "value": {
          "conceptList": [
            {
              "codedConcept": [
                {
                  "code": "A00-A09",
                  "level": "0",
                  "type": "L",
                  "statusCode": "draft",
                  "designation": [
                    {
                      "displayName": "A00-A09",
                      "language": "en-US",
                      "type": "preferred"
                    }
                  ],
                  "property": [
                    {
                      "code": "NEW-P",
                      "valueDecimal": [
                        {
                          "value": "1.0"
                        }
                      ]
                    }
                  ]
                },
                {
                  "code": "A",
                  "level": "0",
                  "type": "L",
                  "statusCode": "active",
                  "designation": [
                    {
                      "displayName": "Code A",
                      "language": "en-US",
                      "type": "preferred"
                    }
                  ]
                },
                {
                  "code": "AA",
                  "level": "1",
                  "type": "L",
                  "statusCode": "active",
                  "designation": [
                    {
                      "displayName": "Code AA",
                      "language": "en-US",
                      "type": "preferred"
                    }
                  ],
                  "parent": [
                    {
                      "code": "A"
                    }
                  ]
                },
                {
                  "code": "AB",
                  "level": "1",
                  "type": "L",
                  "statusCode": "active",
                  "designation": [
                    {
                      "displayName": "Code AB",
                      "language": "en-US",
                      "type": "preferred"
                    }
                  ],
                  "parent": [
                    {
                      "code": "A"
                    }
                  ]
                },
                {
                  "code": "XX",
                  "level": "1",
                  "type": "L",
                  "statusCode": "active",
                  "designation": [
                    {
                      "displayName": "Code XX with two parents A and C",
                      "language": "en-US",
                      "type": "preferred"
                    }
                  ],
                  "parent": [
                    {
                      "code": "A"
                    },
                    {
                      "code": "C"
                    }
                  ]
                },
                {
                  "code": "B",
                  "level": "0",
                  "type": "L",
                  "statusCode": "active",
                  "designation": [
                    {
                      "displayName": "Code B",
                      "language": "en-US",
                      "type": "preferred"
                    }
                  ]
                },
                {
                  "code": "C",
                  "level": "0",
                  "type": "L",
                  "statusCode": "active",
                  "designation": [
                    {
                      "displayName": "Code C",
                      "language": "en-US",
                      "type": "preferred"
                    }
                  ]
                },
                {
                  "code": "C1",
                  "level": "1",
                  "type": "L",
                  "statusCode": "active",
                  "designation": [
                    {
                      "displayName": "Code C1",
                      "language": "en-US",
                      "type": "preferred"
                    }
                  ],
                  "parent": [
                    {
                      "code": "C"
                    }
                  ]
                },
                {
                  "code": "C2",
                  "level": "1",
                  "type": "L",
                  "statusCode": "active",
                  "designation": [
                    {
                      "displayName": "Code C2",
                      "language": "en-US",
                      "type": "preferred"
                    }
                  ],
                  "parent": [
                    {
                      "code": "C"
                    }
                  ]
                }
              ]
            }
          ]
        }
      }
      
    ]
  }
}