{
  "description" : "concept in treeonly mode",
  "value" : {
    "effectiveDate" : "2011-01-28T00:00:00",
    "type" : "item",
    "name" : [ {
      "language" : "nl-NL",
      "#text" : "Gewicht"
    }, {
      "language" : "en-US",
      "#text" : "Weight"
    } ],
    "statusCode" : "draft",
    "id" : "2.16.840.1.113883.3.1937.99.62.3.2.3"
  }
}