{
  "description" : "Output of a call on concept/{id}/{effectiveDate}/$edit without any further params",
  "value" : {
    "valueDomain" : [ {
      "conceptList" : [ {
        "concept" : [ {
          "desc" : [ {
            "language" : "nl-NL"
          }, {
            "language" : "en-US"
          }, {
            "language" : "de-DE"
          } ],
          "exception" : "false",
          "type" : "",
          "id" : "2.16.840.1.113883.3.1937.99.62.3.2.5.1",
          "level" : "",
          "name" : [ {
            "language" : "nl-NL",
            "#text" : "Patiënt"
          }, {
            "language" : "en-US",
            "#text" : "Patient"
          }, {
            "language" : "de-DE"
          } ],
          "synonym" : [ {
            "language" : "nl-NL"
          }, {
            "language" : "en-US"
          }, {
            "language" : "de-DE"
          } ]
        }, {
          "desc" : [ {
            "language" : "nl-NL"
          }, {
            "language" : "en-US"
          }, {
            "language" : "de-DE"
          } ],
          "exception" : "false",
          "type" : "",
          "id" : "2.16.840.1.113883.3.1937.99.62.3.2.5.2",
          "level" : "",
          "name" : [ {
            "language" : "nl-NL",
            "#text" : "Thuiszorg"
          }, {
            "language" : "en-US",
            "#text" : "Home care provider"
          }, {
            "language" : "de-DE"
          } ],
          "synonym" : [ {
            "language" : "nl-NL"
          }, {
            "language" : "en-US"
          }, {
            "language" : "de-DE"
          } ]
        }, {
          "desc" : [ {
            "language" : "nl-NL"
          }, {
            "language" : "en-US"
          }, {
            "language" : "de-DE"
          } ],
          "exception" : "false",
          "type" : "",
          "id" : "2.16.840.1.113883.3.1937.99.62.3.2.5.3",
          "level" : "",
          "name" : [ {
            "language" : "nl-NL",
            "#text" : "Huisarts"
          }, {
            "language" : "en-US",
            "#text" : "GP"
          }, {
            "language" : "de-DE"
          } ],
          "synonym" : [ {
            "language" : "nl-NL"
          }, {
            "language" : "en-US"
          }, {
            "language" : "de-DE"
          } ]
        }, {
          "desc" : [ {
            "language" : "nl-NL"
          }, {
            "language" : "en-US"
          }, {
            "language" : "de-DE"
          } ],
          "exception" : "false",
          "type" : "",
          "id" : "2.16.840.1.113883.3.1937.99.62.3.2.5.4",
          "level" : "",
          "name" : [ {
            "language" : "nl-NL",
            "#text" : "Mantelzorg"
          }, {
            "language" : "en-US",
            "#text" : "Personal network"
          }, {
            "language" : "de-DE"
          } ],
          "synonym" : [ {
            "language" : "nl-NL"
          }, {
            "language" : "en-US"
          }, {
            "language" : "de-DE"
          } ]
        } ],
        "id" : "2.16.840.1.113883.3.1937.99.62.3.2.5.0"
      } ],
      "type" : "code"
    } ],
    "canonicalUri" : "",
    "type" : "item",
    "contains" : [ {
      "flexibility" : "2011-01-28T00:00:00",
      "iStatusCode" : "draft",
      "iType" : "item",
      "ref" : "2.16.840.1.113883.3.1937.99.62.3.2.5",
      "datasetStatusCode" : "draft",
      "datasetEffectiveDate" : "2012-05-30T11:32:36",
      "datasetId" : "2.16.840.1.113883.3.1937.99.62.3.1.1",
      "prefix" : "demo1-",
      "iEffectiveDate" : "2011-01-28T00:00:00",
      "refdisplay" : "demo1-dataelement-5"
    } ],
    "name" : [ {
      "language" : "nl-NL",
      "#text" : "Meting door"
    }, {
      "language" : "en-US",
      "#text" : "Measured by"
    } ],
    "desc" : [ {
      "language" : "nl-NL",
      "#text" : "Persoon die de meting verricht heeft"
    }, {
      "language" : "en-US",
      "#text" : "Person who performed the measurement"
    } ],
    "effectiveDate" : "2012-05-30T14:18:23",
    "edit" : [ {
      "mode" : "edit",
      "deinherit" : "false"
    } ],
    "lock" : [ {
      "effectiveDate" : "2012-05-30T14:18:23",
      "userName" : "admin",
      "prefix" : "demo1-",
      "since" : "2021-04-09T12:07:24.07+02:00",
      "type" : "DE",
      "ref" : "2.16.840.1.113883.3.1937.99.62.3.2.40",
      "user" : "admin"
    } ],
    "statusCode" : "draft",
    "id" : "2.16.840.1.113883.3.1937.99.62.3.2.40",
    "officialReleaseDate" : "",
    "versionLabel" : "",
    "comment" : [ {
      "language" : "nl-NL"
    }, {
      "language" : "en-US"
    }, {
      "language" : "de-DE"
    } ],
    "expirationDate" : "",
    "iddisplay" : "demo1-dataelement-40"
  }
}