{
  "description" : "concept id: 2.16.840.1.113883.3.1937.99.62.3.2.1, effectiveDate: 2012-05-30T11:32:36, recursion: false, list: true, status: new",
  "value" : {
    "total" : "1",
    "error" : [ {
      "effectiveDate" : "2012-05-30T11:32:36",
      "#text" : "Status transition not allowed from draft to new.",
      "itemcode" : "DE",
      "itemname" : "concept",
      "statusCode" : "draft",
      "id" : "2.16.840.1.113883.3.1937.99.62.3.2.1"
    } ],
    "artifact" : "STATUS",
    "current" : "1",
    "all" : "1"
  }
}