{
  "value": {
    "parameter": [
      {
        "op": "add",
        "path": "/",
        "value": {
          "terminologyAssociation": {
            "conceptId": "2.16.840.1.113883.3.1937.99.62.3.2.7",
            "conceptFlexibility": "2012-05-30T14:18:23",
            "ref": "2.16.840.1.113883.2.4.6.3"
          }
        }
      }
    ]
  }
}