{
	"description": "Single page with content and without child pages",
	"value": {
    "id": "d789e119-f04f-48e5-89e1-19f04fb8e123",
    "title": [
      {
        "language": "en-US",
        "#text": "Principles"
      }
    ],
    "content": [
      {
        "language": "en-US",
        "#text": "\n          <h2>General Principles for this Specification</h2>\n          <ol>\n            <li>\n              <p>The standards specification for the IPS will be implementable</p>\n              <ul>\n                <li>\n                  <p>Promote (the evolution and convergence of) existing standards</p>\n                </li>\n                <li>\n                  <p>Rely on solutions that are already implemented or ready for implementation</p>\n                </li>\n                <li>\n                  <p>Consider new or additional solutions as they become available</p>\n                </li>\n              </ul>\n            </li>\n            <li>\n              <p>The standards specification for the IPS will be applicable for global use</p>\n              <ul>\n                <li>\n                  <p>Strive for global accessibility of standards for use at no cost</p>\n                </li>\n                <li>\n                  <p>Strive for a core set of globally accessible and usable terminologies and value sets</p>\n                </li>\n                <li>\n                  <p>Include free text in addition to the structured codes as needed</p>\n                </li>\n                <li>\n                  <p>Do not include local solutions in the core specification that are not available in other jurisdictions</p>\n                </li>\n              </ul>\n            </li>\n            <li>\n              <p>The standards specification will be extensible and open to future use cases and solutions</p>\n              <ul>\n                <li>\n                  <p>The IPS provides common content that can be extended and specialized for other use cases, or localized for specific jurisdictional needs</p>\n                </li>\n                <li>\n                  <p>The IPS is open to emerging solutions for unresolved issues or improvements</p>\n                </li>\n              </ul>\n            </li>\n            <li>\n              <p>The standards specification and their implementation must be sustainable through:</p>\n              <ul>\n                <li>\n                  <p>A robust maintenance and update process for the IPS</p>\n                </li>\n                <li>\n                  <p>A process to ensure clinical validity of the IPS, meeting:</p>\n                  <ul>\n                    <li>\n                      <p>clinical requirements (including workflow)</p>\n                    </li>\n                    <li>\n                      <p>clinical documentation requirements</p>\n                    </li>\n                    <li>\n                      <p>information quality requirements</p>\n                    </li>\n                  </ul>\n                </li>\n              </ul>\n            </li>\n          </ol>\n        "
      }
    ]
  }
}