{
  "description" : "",
  "value" : {
    "priority" : "N",
    "type" : "RFC",
    "id" : "2.16.840.1.113883.3.1937.99.62.3.6.7",
    "assignment" : [ {
      "to" : "3",
      "author" : [ {
        "#text" : "User Name",
        "id" : "3"
      } ],
      "name" : "User Name",
      "desc" : [ {
        "language" : "nl-NL",
        "#text" : "[serialized xhtml]"
      } ],
      "effectiveDate" : "2020-09-09T15:32:27"
    } ],
    "displayName" : "Issue Title",
    "object" : [ {
      "effectiveDate" : "2012-05-30T14:18:23",
      "type" : "DE",
      "id" : "2.16.840.1.113883.3.1937.99.62.3.2.15"
    } ],
    "tracking" : [ {
      "label" : "label1 label2",
      "author" : [ {
        "#text" : "User Name",
        "id" : "3"
      } ],
      "statusCode" : "open",
      "desc" : [ {
        "language" : "nl-NL",
        "#text" : "[serialized xhtml]"
      } ],
      "effectiveDate" : "2020-09-09T15:32:26"
    } ]
  }
}