{
  "description" : "",
  "value" : {
    "total" : "5",
    "issue" : [ {
      "currentStatusCode" : "open",
      "lastAssignment" : "Maarten Ligtvoet",
      "priority" : "N",
      "type" : "RFC",
      "id" : "2.16.840.1.113883.3.1937.99.62.3.6.7",
      "object" : [ {
        "effectiveDate" : "2012-05-30T14:18:23",
        "type" : "DE",
        "id" : "2.16.840.1.113883.3.1937.99.62.3.2.15"
      } ],
      "ident" : "demo1-",
      "lastAuthor" : "Maarten Ligtvoet",
      "lastAuthorId" : "3",
      "lastDate" : "2020-11-24T18:08:48",
      "lastAssignmentId" : "3",
      "displayName" : "Issue Title",
      "iddisplay" : "demo1-issue-7"
    }, {
      "currentStatusCode" : "open",
      "lastAssignment" : "Maarten Ligtvoet",
      "priority" : "N",
      "type" : "RFC",
      "id" : "2.16.840.1.113883.3.1937.99.62.3.6.8",
      "object" : [ {
        "effectiveDate" : "2012-05-30T14:18:23",
        "type" : "DE",
        "id" : "2.16.840.1.113883.3.1937.99.62.3.2.15"
      } ],
      "ident" : "demo1-",
      "lastAuthor" : "Admin",
      "lastAuthorId" : "2",
      "lastDate" : "2020-11-24T17:54:23",
      "lastAssignmentId" : "3",
      "displayName" : "Issue Title",
      "iddisplay" : "demo1-issue-8"
    }, {
      "currentStatusCode" : "open",
      "lastAssignment" : "Maarten Ligtvoet",
      "priority" : "L",
      "type" : "RFC",
      "id" : "2.16.840.1.113883.3.1937.99.62.3.6.4",
      "object" : [ {
        "effectiveDate" : "2012-05-30T14:18:23",
        "type" : "DE",
        "id" : "2.16.840.1.113883.3.1937.99.62.3.2.6"
      } ],
      "ident" : "demo1-",
      "lastAuthor" : "Maarten Ligtvoet",
      "lastAuthorId" : "3",
      "lastDate" : "2012-09-09T15:32:27",
      "lastAssignmentId" : "3",
      "displayName" : "Lage prio",
      "iddisplay" : "demo1-issue-4"
    }, {
      "currentStatusCode" : "open",
      "priority" : "N",
      "type" : "RFC",
      "id" : "2.16.840.1.113883.3.1937.99.62.3.6.6",
      "lastDate" : "2012-09-09T15:54:28",
      "object" : [ {
        "effectiveDate" : "2011-01-28T00:00:00",
        "type" : "DE",
        "id" : "2.16.840.1.113883.3.1937.99.62.3.2.15"
      } ],
      "ident" : "demo1-",
      "lastAuthor" : "Maarten Ligtvoet",
      "lastAuthorId" : "3",
      "displayName" : "Lengte beperken tot één eenheid",
      "iddisplay" : "demo1-issue-6"
    }, {
      "currentStatusCode" : "inprogress",
      "lastAssignment" : "Maarten Ligtvoet",
      "priority" : "N",
      "type" : "CLF",
      "id" : "2.16.840.1.113883.3.1937.99.62.3.6.5",
      "object" : [ {
        "effectiveDate" : "2012-05-30T11:32:36",
        "type" : "DS",
        "id" : "2.16.840.1.113883.3.1937.99.62.3.1.1"
      }, {
        "effectiveDate" : "2012-05-30T11:32:36",
        "type" : "DE",
        "id" : "2.16.840.1.113883.3.1937.99.62.3.2.1"
      }, {
        "effectiveDate" : "2011-07-25T15:22:56",
        "type" : "VS",
        "id" : "2.16.840.1.113883.3.1937.99.62.3.11.5"
      }, {
        "effectiveDate" : "2011-07-25T15:22:56",
        "type" : "CS",
        "id" : "2.16.840.1.113883.3.1937.99.62.3.5.1"
      }, {
        "effectiveDate" : "2012-09-05T16:59:35",
        "type" : "SC",
        "id" : "2.16.840.1.113883.3.1937.99.62.3.3.1"
      }, {
        "effectiveDate" : "2012-09-05T16:59:35",
        "type" : "TR",
        "id" : "2.16.840.1.113883.3.1937.99.62.3.4.2"
      }, {
        "effectiveDate" : "2009-10-01T00:00:00",
        "type" : "TM",
        "id" : "2.16.840.1.113883.3.1937.99.62.3.10.15"
      }, {
        "type" : "IS",
        "id" : "2.16.840.1.113883.3.1937.99.62.3.6.4"
      } ],
      "ident" : "demo1-",
      "lastAuthor" : "Maarten Ligtvoet",
      "lastAuthorId" : "3",
      "lastDate" : "2012-09-09T14:52:51",
      "lastAssignmentId" : "3",
      "displayName" : "Usage unclear",
      "iddisplay" : "demo1-issue-5"
    } ],
    "artifact" : "IS",
    "current" : "5",
    "all" : "5"
  }
}