{
  "description" : "Response to LOINC panel import with number of concepts, value sets and terminology associations to insert / inserted",
  "value" : {
    "concepts" : "12",
    "valueSets" : "22",
    "associations" : "22"
  }
}