{
  "description" : "LOINC panel import parameters",
  "value" : {
    "datasetId" : "2.16.840.1.113883.3.1937.99.62.3.1.1",
    "effectiveDate" : "2012-05-30T11:32:36",
    "panelCode" : "62337-1",
    "insertMode" : "preceding",
    "insertRef" : "2.16.840.1.113883.3.1937.99.62.3.2.1",
    "insertFlexibility" : "2012-05-30T11:32:36"
  }
}