{
    "name": "ada",
    "projectId": "2.16.840.1.113883.3.1937.99.62.3",
    "displayName": "ada",
    "desc": [
        {
            "language": "en-US",
            "#text": "Community to specify UI attributes for ADA"
        }
    ],
    "access": [
        {
            "author": [
                {
                    "username": "postman-test-user",
                    "rights": "rw",
                    "#text": "postman"
                },
                {
                    "username": "admin",
                    "rights": "rw",
                    "#text": "Admin"
                },
                {
                    "username": "guest",
                    "rights": "r",
                    "#text": "Guest"
                }
            ]
        }
    ],
    "prototype": [
        {
            "ref": "https://assets.art-decor.org/ADAR/rv/DECOR-communityADA.xml"
        }
    ]
}