{
  "description" : "",
  "value" : {
    "parameter" : [ {
      "op" : "replace",
      "value" : "true",
      "path" : "/switchCreateSchematron"
    }, {
      "op" : "replace",
      "value" : "false",
      "path" : "/switchCreateSchematronWithWrapperIncludes"
    }, {
      "op" : "replace",
      "value" : "false",
      "path" : "/switchCreateSchematronWithWarningsOnOpen"
    }, {
      "op" : "replace",
      "value" : "false",
      "path" : "/switchCreateSchematronClosed"
    }, {
      "op" : "replace",
      "value" : "true",
      "path" : "/switchCreateDocHTML"
    }, {
      "op" : "replace",
      "value" : "true",
      "path" : "/switchCreateDocSVG"
    }, {
      "op" : "replace",
      "value" : "false",
      "path" : "/switchCreateDocDocbook"
    }, {
      "op" : "remove",
      "path" : "/switchCreateDocPDF"
    }, {
      "op" : "replace",
      "value" : "false",
      "path" : "/useLocalAssets"
    }, {
      "op" : "replace",
      "value" : "false",
      "path" : "/useLocalLogos"
    }, {
      "op" : "replace",
      "value" : {
        "useCustomLogo" : [ {
          "src" : "https://assets.art-decor.org/ADAR/rv/assets/3dartdecor.jpg",
          "href" : "https://art-decor.org"
        } ]
      },
      "path" : "/useCustomLogo"
    }, {
      "op" : "replace",
      "value" : "false",
      "path" : "/useLatestDecorVersion"
    }, {
      "op" : "replace",
      "value" : "false",
      "path" : "/inDevelopment"
    }, {
      "op" : "replace",
      "value" : "en-US",
      "path" : "/defaultLanguage"
    }, {
      "op" : "replace",
      "value" : "true",
      "path" : "/switchCreateDatatypeChecks"
    }, {
      "op" : "replace",
      "value" : "true",
      "path" : "/createDefaultInstancesForRepresentingTemplates"
    }, {
      "op" : "replace",
      "value" : {
        "useCustomRetrieve" : [ "4", "5", "g", "h", "i" ]
      },
      "path" : "/useCustomRetrieve"
    }, {
      "op" : "replace",
      "value" : "INFO",
      "path" : "/logLevel"
    }, {
      "op" : "replace",
      "value" : "https://art-decor.org/art-decor/",
      "path" : "/artdecordeeplinkprefix"
    }, {
      "op" : "replace",
      "value" : "freeze",
      "path" : "/bindingBehavior"
    }, {
      "op" : "replace",
      "value" : "true",
      "path" : "/switchCreateTreeTableHtml"
    } ]
  }
}