{
  "description" : "Create the project runtime environment after compiling first (this allows the validation of all referenced BBR contents). Create schematron with with closed logic that warns against anything not specified. Use only explicitly called inclusions, and any recognize any parts of the specification which is marked to be independent (context[@id = * or **]).",
  "value" : {
    "filters" : [ {
      "filterId" : "1",
      "filter" : "on",
      "filters" : [ {
        "transaction" : [ {
          "flexibility" : "2012-09-05T16:59:35",
          "statusCode" : "draft",
          "ref" : "2.16.840.1.113883.3.1937.99.62.3.4.2",
          "name" : "Measurement message"
        } ],
        "label" : "Measurement message transaction",
        "created" : "2021-02-18T22:10:46.909Z",
        "modified" : "2021-02-18T22:10:46.909Z",
        "id" : "1"
      } ]
    } ],
    "switchCreateSchematronWithWarningsOnOpen" : "true",
    "switchCreateSchematronWithExplicitIncludes" : "false"
  }
}