{
  "description" : "List of logos available in project demo1-",
  "value" : {
    "total" : "3",
    "copyright" : [ {
      "logo" : "art-decor-logo2.png",
      "by" : "The ART-DECOR expert group"
    } ],
    "artifact" : "LOGOS",
    "reference" : [ {
      "logo" : "art-decor-logo-long.jpg"
    } ],
    "otherlogo" : [ {
      "logo" : "art-decor-logo-small.jpg"
    } ],
    "current" : "3",
    "all" : "3"
  }
}