{
  "description" : "Project demo1- with history",
  "value" : {
    "prefix" : "demo1-",
    "defaultLanguage" : "en-US",
    "history" : [ {
      "when: " : "2020-05-13T18:00:01",
      "type" : "TM",
      "what" : [ "Template <i>IPS Vital Signs Organizer</i> (2.16.840.1.113883.10.22.4.44)" ],
      "performer" : "Given Lastname"
    }, {
      "when: " : "2020-05-10T18:53:27",
      "type" : "TM",
      "what" : [ "Template <i>IPS Social History Section</i> (2.16.840.1.113883.10.22.3.10)" ],
      "performer" : "Given Lastname"
    } ],
    "id" : "2.16.840.1.113883.3.1937.99.62.3"
  }
}