{
  "description": "Put/update new data for a FHIR Questionnaire. uuid properties will not be persisted.",
  "value": {
    "uuid": "529ba7ae-6039-4a76-9ba7-ae6039ba76f4",
    "id": "2.16.840.1.113883.3.1937.99.60.10.27.1",
    "effectiveDate": "2022-02-16T00:00:00",
    "statusCode": "draft",
    "versionLabel": "4.0.0",
    "canonicalUri": "http://art-decor.org/fhir/Questionnaire/VitalSignsMeasurement",
    "lastModifiedDate": "2022-12-31T17:54:53",
    "enhanced": "false",
    "name": [
      {
        "language": "en-US",
        "#text": "Vital Signs Measurement"
      },
      {
        "language": "nl-NL",
        "lastTranslated": "2022-12-31T17:54:53",
        "#text": "veranderde tekst4"
      }
    ],
    "desc": [
      {
        "language": "en-US",
        "#text": "This is the description for the Vital Signs Measurement Questionnaire"
      }
    ],
    "classification": [
      {
        "tag": [
          "Vital Signs",
          "Patient Surveillance"
        ]
      }
    ],
    "relationship": [
      {
        "type": "DRIV",
        "ref": "2.16.840.1.113883.3.1937.99.60.10.4.2",
        "flexibility": "2022-02-16T00:00:00"
      }
    ],
    "subjectType": [
      {"code": "Patient"}
    ],
    "publishingAuthority": [
      {
        "name": "My Great Publisher",
        "addrLine": [
          {
            "type": "uri",
            "#text": "https://art-decor.org"
          }
        ]
      }
    ],
    "code": [
      {
        "code": "85353-1",
        "codeSystem": "2.16.840.1.113883.6.1",
        "canonicalUri": "http://loinc.org"
      },
      {
        "code": "1-8",
        "codeSystem": "2.16.840.1.113883.6.1",
        "displayName": "Acyclovir [Susceptibility]",
        "canonicalUri": "http://loinc.org"
      }
    ],
    "copyright": [
      {
        "language": "nl-NL",
        "lastTranslated": "2022-12-31T17:54:53",
        "#text": "Kopierecht"
      }
    ],
    "jurisdiction": [
      {
        "code": "NL",
        "codeSystem": "1.0.3166.1.2.2",
        "displayName": "Netherlands",
        "canonicalUri": "urn:iso:std:iso:3166"
      }
    ],
    "item": [
      {
        "definition": "http://art-decor.org/fhir/StructureDefinition/2.16.840.1.113883.3.1937.99.60.10.4.2--20220216000000#2.16.840.1.113883.3.1937.99.60.10.2.3--20220103000000",
        "linkId": "2.16.840.1.113883.3.1937.99.60.10.2.3--20220103000000",
        "repeats": "false",
        "required": "true",
        "type": "group",
        "text": [
          {
            "language": "en-US",
            "#text": "Vital Signs"
          },
          {
            "language": "en-US",
            "#text": "Vital Signs"
          }
        ],
        "item": [
          {
            "linkId": "2.16.840.1.113883.3.1937.99.60.10.2.3--20220103000000-help",
            "type": "display",
            "text": [
              {
                "language": "en-US",
                "#text": "Set of Vital Signs to be used in the demo project"
              },
              {
                "language": "en-US",
                "#text": "Set of Vital Signs to be used in the demo project"
              }
            ]
          },
          {
            "definition": "http://art-decor.org/fhir/StructureDefinition/2.16.840.1.113883.3.1937.99.60.10.4.2--20220216000000#2.16.840.1.113883.3.1937.99.60.10.2.80--20220103000000",
            "linkId": "2.16.840.1.113883.3.1937.99.60.10.2.80--20220103000000",
            "repeats": "false",
            "required": "true",
            "type": "dateTime",
            "text": [
              {
                "language": "en-US",
                "#text": "Date"
              },
              {
                "language": "en-US",
                "#text": "Date"
              }
            ],
            "item": [
              {
                "linkId": "2.16.840.1.113883.3.1937.99.60.10.2.80--20220103000000-help",
                "type": "display",
                "text": [
                  {
                    "language": "en-US",
                    "#text": "Date when the measurement took place"
                  },
                  {
                    "language": "en-US",
                    "#text": "Date when the measurement took place"
                  }
                ]
              }
            ]
          },
          {
            "definition": "http://art-decor.org/fhir/StructureDefinition/2.16.840.1.113883.3.1937.99.60.10.4.2--20220216000000#2.16.840.1.113883.3.1937.99.60.10.2.81--20220103000000",
            "linkId": "2.16.840.1.113883.3.1937.99.60.10.2.81--20220103000000",
            "repeats": "false",
            "required": "false",
            "type": "quantity",
            "text": [
              {
                "language": "en-US",
                "#text": "Body weight"
              },
              {
                "language": "en-US",
                "#text": "Body weight"
              }
            ],
            "item": [
              {
                "linkId": "2.16.840.1.113883.3.1937.99.60.10.2.81--20220103000000-help",
                "type": "display",
                "text": [
                  {
                    "language": "en-US",
                    "#text": "Body weight, measured in kg"
                  },
                  {
                    "language": "en-US",
                    "#text": "Body weight, measured in kg"
                  }
                ]
              }
            ]
          },
          {
            "definition": "http://art-decor.org/fhir/StructureDefinition/2.16.840.1.113883.3.1937.99.60.10.4.2--20220216000000#2.16.840.1.113883.3.1937.99.60.10.2.82--20220103000000",
            "linkId": "2.16.840.1.113883.3.1937.99.60.10.2.82--20220103000000",
            "repeats": "false",
            "required": "false",
            "type": "quantity",
            "text": [
              {
                "language": "en-US",
                "#text": "Heart rate"
              },
              {
                "language": "en-US",
                "#text": "Heart rate"
              }
            ],
            "item": [
              {
                "linkId": "2.16.840.1.113883.3.1937.99.60.10.2.82--20220103000000-help",
                "type": "display",
                "text": [
                  {
                    "language": "en-US",
                    "#text": "Heart rate"
                  },
                  {
                    "language": "en-US",
                    "#text": "Heart rate"
                  }
                ]
              }
            ]
          },
          {
            "definition": "http://art-decor.org/StructureDefinition/2.16.840.1.113883.3.1937.99.60.10.4.2--20220216000000#2.16.840.1.113883.3.1937.99.60.10.2.83--20220103000000",
            "linkId": "2.16.840.1.113883.3.1937.99.60.10.2.83--20220103000000",
            "repeats": "false",
            "required": "false",
            "type": "quantity",
            "text": [
              {
                "language": "en-US",
                "#text": "Body temperature"
              },
              {
                "language": "en-US",
                "#text": "Body temperature"
              }
            ],
            "item": [
              {
                "linkId": "2.16.840.1.113883.3.1937.99.60.10.2.83--20220103000000-help",
                "type": "display",
                "text": [
                  {
                    "language": "en-US",
                    "#text": "Body temperature"
                  },
                  {
                    "language": "en-US",
                    "#text": "Body temperature"
                  }
                ]
              }
            ]
          }
        ]
      }
    ]
  }
}