{
  "description": "Patch data relevant for a questionnaire",
  "value": {
    "parameter": [
      {
        "op": "replace",
        "path": "/versionLabel",
        "value": "4.0.0"
      },
      {
        "op": "replace",
        "path": "/experimental",
        "value": false
      },
      {
        "op": "replace",
        "path": "/publishingAuthority",
        "value": {
          "publishingAuthority": {
            "name": "My Great Publisher",
            "addrLine": [
              {
                "type": "uri",
                "#text": "https://art-decor.org"
              }
            ]
          }
        }
      },
      {
        "op": "replace",
        "path": "/subjectType",
        "value": {
          "subjectType": {"code": "Patient"}
        }
      },
      {
        "op": "add",
        "path": "/copyright",
        "value": {
          "copyright": [
            {
              "language": "nl-NL",
              "#text": "Kopierecht"
            }
          ]
        }
      },
      {
        "op": "replace",
        "path": "/code",
        "value": {
          "code": {
            "codeSystem": "2.16.840.1.113883.6.1",
            "code": "1-8",
            "displayName": "Acyclovir [Susceptibility]"
          }
        }
      },
      {
        "op": "remove",
        "path": "/code",
        "value": {
          "code": {
            "codeSystem": "1.0.3166.1.2.2",
            "code": "NL",
            "displayName": "Netherlands"
          }
        }
      },
      {
        "op": "replace",
        "path": "/jurisdiction",
        "value": {
          "jurisdiction": {
            "codeSystem": "1.0.3166.1.2.2",
            "code": "NL",
            "displayName": "Netherlands"
          }
        }
      },
      {
        "op": "add",
        "path": "/name",
        "value": {
          "name": [
            {
              "language": "nl-NL",
              "#text": "veranderde tekst4"
            }
          ]
        }
      },
      {
        "op": "add",
        "path": "/canonicalUri",
        "value": "http://art-decor.org/fhir/Questionnaire/VitalSignsMeasurement"
      },
      {
        "op": "replace",
        "path": "/relationship",
        "value": {
          "relationship": {
            "type": "DRIV",
            "ref": "2.16.840.1.113883.3.1937.99.60.10.4.2",
            "flexibility": "2022-02-16T00:00:00"
          }
        }
      },
      {
        "op": "replace",
        "path": "/item",
        "value": {
          "item": [
            {
              "linkId": "2.16.840.1.113883.3.1937.99.60.10.2.3--20220103000000",
              "definition": "http://art-decor.org/fhir/StructureDefinition/2.16.840.1.113883.3.1937.99.60.10.4.2--20220216000000#2.16.840.1.113883.3.1937.99.60.10.2.3--20220103000000",
              "type": "group",
              "required": "true",
              "repeats": "false",
              "text": [
                {
                  "language": "en-US",
                  "#text": "Vital Signs"
                }
              ],
              "item": [
                {
                  "linkId": "2.16.840.1.113883.3.1937.99.60.10.2.3--20220103000000-help",
                  "type": "display",
                  "text": [
                    {
                      "language": "en-US",
                      "#text": "Set of Vital Signs to be used in the demo project"
                    }
                  ],
                  "itemControl": [
                    {
                      "code": "help",
                      "canonicalUri": "http://hl7.org/fhir/questionnaire-item-control",
                      "displayName": "Help-Button"
                    }
                  ]
                },
                {
                  "linkId": "2.16.840.1.113883.3.1937.99.60.10.2.80--20220103000000",
                  "definition": "http://art-decor.org/fhir/StructureDefinition/2.16.840.1.113883.3.1937.99.60.10.4.2--20220216000000#2.16.840.1.113883.3.1937.99.60.10.2.80--20220103000000",
                  "type": "dateTime",
                  "required": "true",
                  "repeats": "false",
                  "text": [
                    {
                      "language": "en-US",
                      "#text": "Date"
                    }
                  ],
                  "item": [
                    {
                      "linkId": "2.16.840.1.113883.3.1937.99.60.10.2.80--20220103000000-help",
                      "type": "display",
                      "text": [
                        {
                          "language": "en-US",
                          "#text": "Date when the measurement took place"
                        }
                      ],
                      "itemControl": [
                        {
                          "code": "help",
                          "canonicalUri": "http://hl7.org/fhir/questionnaire-item-control",
                          "displayName": "Help-Button"
                        }
                      ]
                    }
                  ]
                },
                {
                  "linkId": "2.16.840.1.113883.3.1937.99.60.10.2.81--20220103000000",
                  "definition": "http://art-decor.org/fhir/StructureDefinition/2.16.840.1.113883.3.1937.99.60.10.4.2--20220216000000#2.16.840.1.113883.3.1937.99.60.10.2.81--20220103000000",
                  "type": "quantity",
                  "required": "false",
                  "repeats": "false",
                  "text": [
                    {
                      "language": "en-US",
                      "#text": "Body weight"
                    }
                  ],
                  "code": [
                    {
                      "code": "29463-7",
                      "canonicalUri": "http://loinc.org"
                    }
                  ],
                  "unitOption": [
                    {
                      "code": "kg",
                      "canonicalUri": "http://unitsofmeasure.org",
                      "displayName": "kilogram"
                    }
                  ],
                  "item": [
                    {
                      "linkId": "2.16.840.1.113883.3.1937.99.60.10.2.81--20220103000000-help",
                      "type": "display",
                      "text": [
                        {
                          "language": "en-US",
                          "#text": "Body weight, measured in kg"
                        }
                      ],
                      "itemControl": [
                        {
                          "code": "help",
                          "canonicalUri": "http://hl7.org/fhir/questionnaire-item-control",
                          "displayName": "Help-Button"
                        }
                      ]
                    }
                  ]
                },
                {
                  "linkId": "2.16.840.1.113883.3.1937.99.60.10.2.82--20220103000000",
                  "definition": "http://art-decor.org/fhir/StructureDefinition/2.16.840.1.113883.3.1937.99.60.10.4.2--20220216000000#2.16.840.1.113883.3.1937.99.60.10.2.82--20220103000000",
                  "type": "quantity",
                  "required": "false",
                  "repeats": "false",
                  "text": [
                    {
                      "language": "en-US",
                      "#text": "Heart rate"
                    }
                  ],
                  "code": [
                    {
                      "code": "8867-4",
                      "canonicalUri": "http://loinc.org"
                    }
                  ],
                  "unitOption": [
                    {
                      "code": "/min",
                      "canonicalUri": "http://unitsofmeasure.org",
                      "displayName": "per minute"
                    }
                  ],
                  "item": [
                    {
                      "linkId": "2.16.840.1.113883.3.1937.99.60.10.2.82--20220103000000-help",
                      "type": "display",
                      "text": [
                        {
                          "language": "en-US",
                          "#text": "Heart rate"
                        }
                      ],
                      "itemControl": [
                        {
                          "code": "help",
                          "canonicalUri": "http://hl7.org/fhir/questionnaire-item-control",
                          "displayName": "Help-Button"
                        }
                      ]
                    }
                  ]
                },
                {
                  "linkId": "2.16.840.1.113883.3.1937.99.60.10.2.83--20220103000000",
                  "definition": "http://art-decor.org/StructureDefinition/2.16.840.1.113883.3.1937.99.60.10.4.2--20220216000000#2.16.840.1.113883.3.1937.99.60.10.2.83--20220103000000",
                  "type": "quantity",
                  "required": "false",
                  "repeats": "false",
                  "text": [
                    {
                      "language": "en-US",
                      "#text": "Body temperature"
                    }
                  ],
                  "code": [
                    {
                      "code": "8310-5",
                      "canonicalUri": "http://loinc.org"
                    }
                  ],
                  "unitOption": [
                    {
                      "code": "C",
                      "displayName": "C"
                    }
                  ],
                  "item": [
                    {
                      "linkId": "2.16.840.1.113883.3.1937.99.60.10.2.83--20220103000000-help",
                      "type": "display",
                      "text": [
                        {
                          "language": "en-US",
                          "#text": "Body temperature"
                        }
                      ],
                      "itemControl": [
                        {
                          "code": "help",
                          "canonicalUri": "http://hl7.org/fhir/questionnaire-item-control",
                          "displayName": "Help-Button"
                        }
                      ]
                    }
                  ]
                }
              ]
            }
          ],
          "questionnaireresponse": [
            {
              "uuid": "951e3e2b-5a0a-44cb-9e3e-2b5a0a84cbc6",
              "id": "2.16.840.1.113883.3.1937.99.60.10.28.1",
              "effectiveDate": "2022-02-16T19:03:16",
              "statusCode": "draft",
              "lastModifiedDate": "2022-12-31T16:52:44",
              "link": "http://localhost:8877/exist/apps/fhir/QuestionnaireResponse/2.16.840.1.113883.3.1937.99.60.10.28.1--20220216190316",
              "name": [
                {
                  "language": "en-US",
                  "#text": "Vital Signs Answer 1"
                }
              ],
              "relationship": [
                {
                  "type": "ANSW",
                  "ref": "2.16.840.1.113883.3.1937.99.60.10.27.1",
                  "flexibility": "2022-02-16T00:00:00"
                }
              ]
            }
          ]
        }
      }
    ]
  }
}