{
  "description" : "",
  "value" : {
    "total" : "2",
    "artifact" : "GROUP",
    "current" : "2",
    "group" : [ {
      "#text" : "dba",
      "testGroup" : "false",
      "userGroup" : "false"
    }, {
      "#text" : "decor",
      "testGroup" : "false",
      "userGroup" : "false"
    } ],
    "all" : "2"
  }
}