{
  "description" : "codesystem meta information, version, size, supported languages, license text",
  "value" : {
    "oid": "2.16.840.1.113883.6.96",
    "id": "snomedct",
    "url": "http://snomed.info/sct",
    "version": "March 2022",
    "statusCode": "active",
    "experimental": "false",
    "effectiveDate": "2022-03-31",
    "defaultLanguage": "en-US",
    "content": "complete",
    "type": "complex",
    "structure": "network",
    "count": "504556",
    "name": {
        "languageCode": "en-US",
        "#text": "SNOMED Clinical Terms"
    },
    "language": [
        {
            "complete": "true",
            "#text": "en-US"
        },
        {
            "complete": "true",
            "#text": "en-GB"
        },
        {
            "complete": "false",
            "#text": "nl-NL"
        }
    ],
    "logo": {
        "link": "http://ihtsdo.org",
        "#text": "ihtsdo-logo40.png"
    },
    "license": "<p>In order to use the SNOMED CT Explorer, Browser, Refsets or ‘Referentielijsten’ please accept the following license agreement:</p><p><b>The Snomed Explorer, Browser, Referencesets and ‘Referentielijsten’</b>, hereafter called <b>SNOMED CT Products</b>, includes SNOMED Clinical Terms® (SNOMED CT®) which is used by permission of the SNOMED International.\n                            All rights reserved. SNOMED CT® was originally created by the College of American Pathologists.“SNOMED”, “SNOMED CT” and “SNOMED Clinical Terms” are registered trademarks of the SNOMED International (<a href=\"http://www.snomed.org\">www.snomed.org</a>)</p><p>Use of SNOMED CT in <b>SNOMED CT Products</b> is governed by the conditions of the following SNOMED CT license issued by SNOMED International:</p><ol><li><p>The meaning of the terms “Affiliate”, or “Data Analysis System”, “Data Creation System”, “Derivative”, “End User”, “Extension”, “Member”, “Non-Member Territory”, “SNOMED CT” and “SNOMED CT Content” are as defined in the SNOMED International Affiliate License Agreement (<a href=\"http://www.snomed.org/resource/resource/117\">see on the SNOMED International web site</a>).</p></li><li><p>Information about Affiliate Licensing is available at <a href=\"http://www.snomed.org/snomed-ct/get-snomed-ct\">http://www.snomed.org/snomed-ct/get-snomed-ct</a>. \n                                    Individuals or organizations wishing to register as SNOMED International Affiliates can register at <a href=\"https://mlds.ihtsdotools.org/\">mlds.ihtsdotools.org</a>, subject to acceptance of the Affiliate License Agreement (<a href=\"http://www.snomed.org/resource/resource/117\">see on the SNOMED International web site</a>).</p></li><li><p>The current list of SNOMED International Member Territories can be viewed at <a href=\"http://www.snomed.org/members\">www.snomed.org/members</a>. Countries not included in that list are \"Non-Member Territories\".</p></li><li><p>End Users, that do not hold an SNOMED International Affiliate License, may access SNOMED CT® using <b>SNOMED CT Products</b> subject to acceptance of and adherence to the following sub-license limitations:\n                                    <ol type=\"a\"><li>The sub-licensee is only permitted to access SNOMED CT® using this software (or service) for the purpose of exploring and evaluating the terminology.</li><li>The sub-licensee is not permitted the use of this software as part of a system that constitutes a SNOMED CT \"Data Creation System\" or \"Data Analysis System\", as defined in the SNOMED International Affiliate License. This means that the sub-licensee must not use <b>CT Products</b> to add or copy SNOMED CT identifiers into any type of record system, database or document.</li><li>The sub-licensee is not permitted to translate or modify SNOMED CT Content or Derivatives.</li><li>The sub-licensee is not permitted to distribute or share SNOMED CT Content or Derivatives.</li></ol></p></li><li><p>                        SNOMED International Affiliates may use <b>SNOMED CT Products</b> as part of a \"Data Creation System\" or \"Data Analysis System\" subject to the following conditions:\n                                    <ol type=\"a\"><li>The SNOMED International Affiliate, using <b>SNOMED CT Products</b> must accept full responsibility for any reporting and fees due for use or deployment of such a system in a Non-Member Territory.</li><li>The SNOMED International Affiliate must not use <b>SNOMED International SNOMED CT Products</b> to access or interact with SNOMED CT in any way that is not permitted by the Affiliate License Agreement.</li><li>In the event of termination of the Affiliate License Agreement, the use of <b>SNOMED CT Products</b> will be subject to the End User limitations noted in 4.</li></ol></p></li></ol>"
}
}