{
	"description": "Request to transform one transaction into a FHIR Questionnaire",
	"value": {
	    "transaction": [
	        {
	           "id": "2.16.840.1.113883.3.1937.99.60.10.4.2",
	           "effectiveDate": "2022-02-16T00:00:00"
	        }
	    ]
	}
}