{
  "description" : "",
  "value" : {
    "transaction" : [ {
      "model" : "POCD_MT000040NL",
      "actors" : {
        "actor" : [ {
          "id" : "2.16.840.1.113883.3.1937.99.62.3.7.1",
          "role" : "sender"
        }, {
          "id" : "2.16.840.1.113883.3.1937.99.62.3.7.2",
          "role" : "receiver"
        } ]
      },
      "label" : "m",
      "type" : "initial",
      "name" : [ {
        "language" : "en-US",
        "#text" : "Measurement message"
      }, {
        "language" : "nl-NL",
        "#text" : "Meting bericht"
      } ],
      "representingTemplate" : {
        "sourceDataset" : "2.16.840.1.113883.3.1937.99.62.3.1.1",
        "sourceDatasetFlexibility" : "2012-05-30T11:32:36",
        "ref" : "2.16.840.1.113883.3.1937.99.62.3.10.16",
        "concept" : [ {
          "minimumMultiplicity" : "0",
          "maximumMultiplicity" : "*",
          "ref" : "2.16.840.1.113883.3.1937.99.62.3.2.1"
        }, {
          "ref" : "2.16.840.1.113883.3.1937.99.62.3.2.18",
          "conformance" : "C",
          "condition" : [ {
            "minimumMultiplicity" : "1",
            "#text" : "Bij gewichtstoename",
            "maximumMultiplicity" : "1",
            "isMandatory" : "true"
          }, {
            "conformance" : "NP"
          } ]
        } ],
        "flexibility" : "dynamic"
      },
      "desc" : [ {
        "language" : "en-US",
        "#text" : "Measurement message test"
      }, {
        "language" : "nl-NL",
        "#text" : "Omschrijving bij het meting bericht"
      } ],
      "effectiveDate" : "2012-09-05T16:59:35",
      "statusCode" : "draft",
      "id" : "2.16.840.1.113883.3.1937.99.62.3.4.2"
    }, {
      "actors" : {
        "actor" : [ {
          "id" : "2.16.840.1.113883.3.1937.99.62.3.7.2",
          "role" : "sender"
        }, {
          "id" : "2.16.840.1.113883.3.1937.99.62.3.7.1",
          "role" : "receiver"
        } ]
      },
      "label" : "m-ack",
      "type" : "back",
      "name" : [ {
        "language" : "nl-NL",
        "#text" : "Bevestiging"
      }, {
        "language" : "en-US",
        "#text" : "Ack"
      } ],
      "desc" : [ {
        "language" : "en-US",
        "#text" : "-"
      }, {
        "language" : "nl-NL",
        "#text" : "-"
      } ],
      "effectiveDate" : "2012-09-05T16:59:35",
      "statusCode" : "draft",
      "id" : "2.16.840.1.113883.3.1937.99.62.3.4.3"
    } ],
    "type" : "group",
    "name" : [ {
      "language" : "en-US",
      "#text" : "Measurement"
    }, {
      "language" : "nl-NL",
      "#text" : "Meting"
    } ],
    "desc" : [ {
      "language" : "en-US",
      "#text" : "A patient measures his or her own weight and length periodically and submits the results to a registry."
    }, {
      "language" : "nl-NL",
      "#text" : "Een patiënt voert metingen uit en verzend deze periodiek naar een register."
    } ],
    "effectiveDate" : "2012-09-05T16:59:35",
    "statusCode" : "draft",
    "id" : "2.16.840.1.113883.3.1937.99.62.3.4.1"
  }
}