{
  "description" : "List of 7 valueSets at hierarchy level 2. The first level is a grouper by id. The second level is every version for that id. If the id is based on a valueSet.ref, and parameter resolve=true (default) then all resolved valueSets for that ref are returned. If at level 2 all you have is a valueSet with .ref, and no valueSet with .id, then the reference could not be resolved which constitutes an error situation. valueSets not from the requested project are marked with valueSet.url and valueSet.ident to indicate the source. Using `[valueSet.url]RetrieveValueSet?prefix=[valueSet.ident]&id=[valueSet.id]&effectiveDate=[valueSet.effectiveDate]` you are able to get to the source.",
  "value" : {
    "total" : "7",
    "resolve" : "true",
    "artifact" : "VS",
    "valueSet" : [ {
      "effectiveDate" : "2020-09-01T00:00:00",
      "url" : "http://decor.nictiz.nl/decor/services/",
      "ident" : "zib2020bbr-",
      "valueSet" : [ {
        "ref" : "2.16.840.1.113883.2.4.3.11.60.40.2.0.1.1",
        "name" : "GeslachtCodelijst",
        "uuid" : "f5263002-663b-4a02-a630-02663bba02f6",
        "displayName" : "GeslachtCodelijst"
      }, {
        "effectiveDate" : "2020-09-01T00:00:00",
        "url" : "http://decor.nictiz.nl/decor/services/",
        "ident" : "zib2020bbr-",
        "name" : "GeslachtCodelijst",
        "uuid" : "3a91ae38-1911-4151-91ae-381911a1515d",
        "displayName" : "GeslachtCodelijst",
        "statusCode" : "final",
        "id" : "2.16.840.1.113883.2.4.3.11.60.40.2.0.1.1"
      }, {
        "effectiveDate" : "2017-12-31T00:00:00",
        "url" : "http://decor.nictiz.nl/decor/services/",
        "ident" : "zib2017bbr-",
        "name" : "GeslachtCodelijst",
        "uuid" : "fe02bdd7-832f-4605-82bd-d7832f66056f",
        "displayName" : "GeslachtCodelijst",
        "statusCode" : "final",
        "id" : "2.16.840.1.113883.2.4.3.11.60.40.2.0.1.1"
      }, {
        "effectiveDate" : "2017-09-04T00:00:00",
        "url" : "http://decor.nictiz.nl/decor/services/",
        "ident" : "zib2017bbr-",
        "name" : "GeslachtCodelijst",
        "uuid" : "0a5875b6-cbf2-4c29-9875-b6cbf26c296a",
        "displayName" : "GeslachtCodelijst",
        "statusCode" : "deprecated",
        "id" : "2.16.840.1.113883.2.4.3.11.60.40.2.0.1.1"
      } ],
      "name" : "GeslachtCodelijst",
      "uuid" : "8438dc25-8948-4919-b8dc-258948a9199f",
      "displayName" : "GeslachtCodelijst",
      "statusCode" : "final",
      "id" : "2.16.840.1.113883.2.4.3.11.60.40.2.0.1.1"
    }, {
      "effectiveDate" : "2012-07-25T15:22:56",
      "valueSet" : [ {
        "effectiveDate" : "2012-07-25T15:22:56",
        "name" : "vs-measured-by",
        "uuid" : "3da98f9a-0888-4801-a98f-9a0888980175",
        "displayName" : "vs-measured-by",
        "statusCode" : "draft",
        "id" : "2.16.840.1.113883.3.1937.99.62.3.11.5"
      }, {
        "effectiveDate" : "2011-07-25T15:22:56",
        "name" : "vs-measured-by",
        "uuid" : "fc97edb2-fd46-48ea-97ed-b2fd46d8ea41",
        "displayName" : "vs-measured-by",
        "statusCode" : "draft",
        "id" : "2.16.840.1.113883.3.1937.99.62.3.11.5"
      } ],
      "name" : "vs-measured-by",
      "uuid" : "b6e8173a-b281-4617-a817-3ab281361768",
      "displayName" : "vs-measured-by",
      "statusCode" : "draft",
      "id" : "2.16.840.1.113883.3.1937.99.62.3.11.5"
    }, {
      "effectiveDate" : "2012-07-25T15:22:56",
      "valueSet" : [ {
        "effectiveDate" : "2012-07-25T15:22:56",
        "name" : "demo1-meting-type",
        "uuid" : "3093245f-6347-494d-9324-5f6347394dae",
        "displayName" : "demo1-meting-type",
        "statusCode" : "draft",
        "id" : "2.16.840.1.113883.3.1937.99.62.3.11.6"
      } ],
      "name" : "demo1-meting-type",
      "uuid" : "8ff29634-a01e-44d8-b296-34a01e14d8e5",
      "displayName" : "demo1-meting-type",
      "statusCode" : "draft",
      "id" : "2.16.840.1.113883.3.1937.99.62.3.11.6"
    } ],
    "current" : "7",
    "all" : "4"
  }
}